…
Examples!

The package has one function: read_fwc(), which
downloads and imports a tidy tibble containing the FWC EBA data

library(readeba)
options(tidyverse.quiet = TRUE)
library(tidyverse)

fwc <- read_fwc()

fwc 
#> # A tibble: 742 × 4
#>    date       indicator               union  value
#>    <date>     <chr>                   <chr>  <dbl>
#>  1 2022-07-15 Employees covered (No.) Total  19132
#>  2 2022-07-29 Employees covered (No.) Total  20038
#>  3 2022-08-12 Employees covered (No.) Total  15331
#>  4 2022-08-26 Employees covered (No.) Total  10065
#>  5 2022-09-09 Employees covered (No.) Total  26461
#>  6 2022-09-23 Employees covered (No.) Total  16551
#>  7 2022-10-07 Employees covered (No.) Total  21586
#>  8 2022-10-21 Employees covered (No.) Total  16503
#>  9 2022-11-04 Employees covered (No.) Total 100074
#> 10 2022-11-18 Employees covered (No.) Total  24113
#> # ℹ 732 more rows
…
